{
    "error_sum": "42.703237981313777",
    "squared_error_sum": "193.37482061589091",
    "detailed_errors": {
        "AB_U": "3.1893564723393428",
        "CBD_U": "3.044281982755177",
        "CBP_U": "5.1111451152964911",
        "DOAC_U": "6.8559762400416462",
        "DOB_U": "3.6570298983160248",
        "DRULd_U": "2.6782657966758476",
        "DRULs_U": "3.7443978185902882",
        "POC_U": "6.6236010990953691",
        "PRULd_U": "1.651277315102923",
        "PRULs_U": "3.6831674791871905",
        "RAF_D": "2.4647387639134739"
    },
    "scalismo_gui_path": "\/mnt\/d\/Bachelor\/AutoAtlas\/build\/datadir\/ulna\/right\/5\/atlas_tune197\/output.txt",
    "vtk_path": "\/mnt\/d\/Bachelor\/AutoAtlas\/build\/datadir\/ulna\/right\/5\/atlas_tune197\/output.vtk",
    "patient": "\/mnt\/d\/Bachelor\/AutoAtlas\/data\/Physiological\/Phys_Bal_13\/VTK Models\/Ulna right.vtk",
    "landmarks": {
        "AB_U": {
            "x": "9.0463857650756836",
            "y": "244.62443542480469",
            "z": "274.59695434570312"
        },
        "CBD_U": {
            "x": "11.976816177368164",
            "y": "244.81312561035156",
            "z": "260.5732421875"
        },
        "CBP_U": {
            "x": "17.286008834838867",
            "y": "246.09500122070312",
            "z": "223.90777587890625"
        },
        "DOAC_U": {
            "x": "29.865345001220703",
            "y": "246.20408630371094",
            "z": "175.45648193359375"
        },
        "DOB_U": {
            "x": "6.1853160858154297",
            "y": "242.91123962402344",
            "z": "293.626708984375"
        },
        "DRULd_U": {
            "x": "4.8882689476013184",
            "y": "243.60441589355469",
            "z": "330.3721923828125"
        },
        "DRULs_U": {
            "x": "7.6290760040283203",
            "y": "248.04814147949219",
            "z": "333.58837890625"
        },
        "POC_U": {
            "x": "38.35516357421875",
            "y": "248.68379211425781",
            "z": "134.39089965820312"
        },
        "PRULd_U": {
            "x": "1.954912543296814",
            "y": "251.7718505859375",
            "z": "329.47247314453125"
        },
        "PRULs_U": {
            "x": "4.9029316902160645",
            "y": "252.17378234863281",
            "z": "332.62673950195312"
        },
        "RAF_D": {
            "x": "-1.3306717872619629",
            "y": "244.82298278808594",
            "z": "328.93527221679688"
        }
    }
}
