{
    "error_sum": "43.063963913801125",
    "squared_error_sum": "194.73170637753623",
    "detailed_errors": {
        "AB_U": "3.2258406094973155",
        "CBD_U": "2.8957034051092525",
        "CBP_U": "4.6673636279560728",
        "DOAC_U": "7.2260646658296555",
        "DOB_U": "3.0312638831990122",
        "DRULd_U": "3.1655450959366922",
        "DRULs_U": "3.7225336686319057",
        "POC_U": "6.4584654728523878",
        "PRULd_U": "1.7869071799664014",
        "PRULs_U": "3.8111433600089173",
        "RAF_D": "3.0731329448135059"
    },
    "scalismo_gui_path": "\/mnt\/d\/Bachelor\/AutoAtlas\/build\/datadir\/ulna\/right\/5\/atlas_tune189\/output.txt",
    "vtk_path": "\/mnt\/d\/Bachelor\/AutoAtlas\/build\/datadir\/ulna\/right\/5\/atlas_tune189\/output.vtk",
    "patient": "\/mnt\/d\/Bachelor\/AutoAtlas\/data\/Physiological\/Phys_Bal_13\/VTK Models\/Ulna right.vtk",
    "landmarks": {
        "AB_U": {
            "x": "9.0617542266845703",
            "y": "244.6239013671875",
            "z": "274.37557983398438"
        },
        "CBD_U": {
            "x": "12.073976516723633",
            "y": "244.79920959472656",
            "z": "259.78366088867188"
        },
        "CBP_U": {
            "x": "17.225959777832031",
            "y": "245.40943908691406",
            "z": "223.82133483886719"
        },
        "DOAC_U": {
            "x": "29.833402633666992",
            "y": "246.23530578613281",
            "z": "175.83372497558594"
        },
        "DOB_U": {
            "x": "5.4925527572631836",
            "y": "242.80606079101562",
            "z": "293.72879028320312"
        },
        "DRULd_U": {
            "x": "5.3543987274169922",
            "y": "243.85198974609375",
            "z": "330.26885986328125"
        },
        "DRULs_U": {
            "x": "7.5821399688720703",
            "y": "248.16903686523438",
            "z": "333.72219848632812"
        },
        "POC_U": {
            "x": "38.420482635498047",
            "y": "248.65245056152344",
            "z": "134.23625183105469"
        },
        "PRULd_U": {
            "x": "2.1716022491455078",
            "y": "251.82815551757812",
            "z": "329.72891235351562"
        },
        "PRULs_U": {
            "x": "5.6687784194946289",
            "y": "251.90737915039062",
            "z": "333.10809326171875"
        },
        "RAF_D": {
            "x": "-1.2024151086807251",
            "y": "245.47041320800781",
            "z": "328.931640625"
        }
    }
}
