{
    "parameters": {
        "rigid_iter": "1000",
        "kernel_sigma": "60",
        "kernel_levels": "2",
        "kernel_scale": "150",
        "gauss_comp": "250",
        "gauss_fit_iter": "1500",
        "landmark_variance": "0.1",
        "atlas_sigma": "175",
        "atlas_scale": "100",
        "atlas_num_comp": "100",
        "ulna_right_folder": "\/mnt\/d\/Bachelor\/AutoAtlas\/build\/datadir\/ulna\/right\/5\/atlas_tune67",
        "gauss_path_ulna_r": "\/mnt\/d\/Bachelor\/AutoAtlas\/build\/datadir\/ulna\/right\/5\/atlas_tune63\/gaussModel.h5"
    },
    "bones": {
        "ulna": [
            {
                "path": "\/mnt\/d\/Bachelor\/AutoAtlas\/data\/Physiological\/Phys_Bal_01\/VTK Models\/Ulna right.vtk",
                "side": "r",
                "landmarks": {
                    "RAF_D": {
                        "x": "-1.0196",
                        "y": "243.17",
                        "z": "324.46"
                    },
                    "CBD_U": {
                        "x": "9.823",
                        "y": "244.72",
                        "z": "258.12"
                    },
                    "CBP_U": {
                        "x": "18.154",
                        "y": "243.55",
                        "z": "222.68"
                    },
                    "AB_U": {
                        "x": "7.4888",
                        "y": "244.68",
                        "z": "272.38"
                    },
                    "DOB_U": {
                        "x": "3.8299",
                        "y": "244.32",
                        "z": "291.59"
                    },
                    "POC_U": {
                        "x": "25.953",
                        "y": "253.02",
                        "z": "135.5"
                    },
                    "DOAC_U": {
                        "x": "27.876",
                        "y": "247.55",
                        "z": "174.45"
                    },
                    "DRULs_U": {
                        "x": "4.1575",
                        "y": "245.66",
                        "z": "327.38"
                    },
                    "DRULd_U": {
                        "x": "2.3415",
                        "y": "242.5",
                        "z": "324.63"
                    },
                    "PRULs_U": {
                        "x": "2.8806",
                        "y": "249.02",
                        "z": "327.16"
                    },
                    "PRULd_U": {
                        "x": "0.14975",
                        "y": "248.44",
                        "z": "323.89"
                    }
                }
            },
            {
                "path": "\/mnt\/d\/Bachelor\/AutoAtlas\/data\/Physiological\/Phys_Bal_02\/VTK Models\/Ulna right.vtk",
                "side": "r",
                "landmarks": {
                    "RAF_D": {
                        "x": "8.00096",
                        "y": "232.76",
                        "z": "288.86"
                    },
                    "CBD_U": {
                        "x": "13.549",
                        "y": "241.33",
                        "z": "216.4"
                    },
                    "CBP_U": {
                        "x": "17.956",
                        "y": "242.34",
                        "z": "176.77"
                    },
                    "AB_U": {
                        "x": "11.669",
                        "y": "240.81",
                        "z": "231.99"
                    },
                    "DOB_U": {
                        "x": "10.324",
                        "y": "238.04",
                        "z": "252.9"
                    },
                    "POC_U": {
                        "x": "27",
                        "y": "250.84",
                        "z": "82.146"
                    },
                    "DOAC_U": {
                        "x": "22.923",
                        "y": "246.63",
                        "z": "123.36"
                    },
                    "DRULs_U": {
                        "x": "11.831",
                        "y": "237.15",
                        "z": "292.37"
                    },
                    "DRULd_U": {
                        "x": "11.908",
                        "y": "233.11",
                        "z": "287.49"
                    },
                    "PRULs_U": {
                        "x": "9.8821",
                        "y": "239.6",
                        "z": "291.77"
                    },
                    "PRULd_U": {
                        "x": "6.2322",
                        "y": "238.34",
                        "z": "288.37"
                    }
                }
            },
            {
                "path": "\/mnt\/d\/Bachelor\/AutoAtlas\/data\/Physiological\/Phys_Bal_03\/VTK Models\/Ulna right.vtk",
                "side": "r",
                "landmarks": {
                    "RAF_D": {
                        "x": "7.2475",
                        "y": "235.61",
                        "z": "304.39"
                    },
                    "CBD_U": {
                        "x": "5.6897",
                        "y": "242.89",
                        "z": "239.51"
                    },
                    "CBP_U": {
                        "x": "5.5179",
                        "y": "242.75",
                        "z": "202.66"
                    },
                    "AB_U": {
                        "x": "5.9911",
                        "y": "242.87",
                        "z": "254.61"
                    },
                    "DOB_U": {
                        "x": "6.2",
                        "y": "239.56",
                        "z": "274.34"
                    },
                    "POC_U": {
                        "x": "10.809",
                        "y": "249.15",
                        "z": "114.13"
                    },
                    "DOAC_U": {
                        "x": "8.4855",
                        "y": "248.88",
                        "z": "154.13"
                    },
                    "DRULs_U": {
                        "x": "12.662",
                        "y": "239.05",
                        "z": "310.21"
                    },
                    "DRULd_U": {
                        "x": "12.278",
                        "y": "235.12",
                        "z": "303.78"
                    },
                    "PRULs_U": {
                        "x": "11.245",
                        "y": "241.59",
                        "z": "310.27"
                    },
                    "PRULd_U": {
                        "x": "8.0704",
                        "y": "241.55",
                        "z": "305.17"
                    }
                }
            },
            {
                "path": "\/mnt\/d\/Bachelor\/AutoAtlas\/data\/Physiological\/Phys_Bal_10\/VTK Models\/Ulna right.vtk",
                "side": "r",
                "landmarks": {
                    "RAF_D": {
                        "x": "-28.702",
                        "y": "255.58",
                        "z": "295.69"
                    },
                    "CBD_U": {
                        "x": "-37.397",
                        "y": "250.56",
                        "z": "234.78"
                    },
                    "CBP_U": {
                        "x": "-41.414",
                        "y": "245.84",
                        "z": "201.24"
                    },
                    "AB_U": {
                        "x": "-36.596",
                        "y": "251.8",
                        "z": "248.3"
                    },
                    "DOB_U": {
                        "x": "-33.393",
                        "y": "252.65",
                        "z": "266.86"
                    },
                    "POC_U": {
                        "x": "-37.281",
                        "y": "243.19",
                        "z": "119.27"
                    },
                    "DOAC_U": {
                        "x": "-44.838",
                        "y": "240.81",
                        "z": "155.73"
                    },
                    "DRULs_U": {
                        "x": "-34.546",
                        "y": "253.77",
                        "z": "299.59"
                    },
                    "DRULd_U": {
                        "x": "-31.609",
                        "y": "251.4",
                        "z": "295.56"
                    },
                    "PRULs_U": {
                        "x": "-35.459",
                        "y": "258.29",
                        "z": "299.81"
                    },
                    "PRULd_U": {
                        "x": "-31.725",
                        "y": "260.57",
                        "z": "296.56"
                    }
                }
            },
            {
                "path": "\/mnt\/d\/Bachelor\/AutoAtlas\/data\/Physiological\/Phys_Bal_11\/VTK Models\/Ulna right.vtk",
                "side": "r",
                "landmarks": {
                    "RAF_D": {
                        "x": "11.697",
                        "y": "241.78",
                        "z": "295.9"
                    },
                    "CBD_U": {
                        "x": "20.031",
                        "y": "245.92",
                        "z": "226.88"
                    },
                    "CBP_U": {
                        "x": "28.806",
                        "y": "245.56",
                        "z": "189.54"
                    },
                    "AB_U": {
                        "x": "18.791",
                        "y": "245.41",
                        "z": "242.06"
                    },
                    "DOB_U": {
                        "x": "15.813",
                        "y": "244.72",
                        "z": "261.88"
                    },
                    "POC_U": {
                        "x": "40.393",
                        "y": "252.87",
                        "z": "99.796"
                    },
                    "DOAC_U": {
                        "x": "37.192",
                        "y": "249.43",
                        "z": "138.98"
                    },
                    "DRULs_U": {
                        "x": "15.575",
                        "y": "246.3",
                        "z": "299.38"
                    },
                    "DRULd_U": {
                        "x": "15.13",
                        "y": "242.55",
                        "z": "296.63"
                    },
                    "PRULs_U": {
                        "x": "14.028",
                        "y": "248.63",
                        "z": "298.79"
                    },
                    "PRULd_U": {
                        "x": "11.446",
                        "y": "246.81",
                        "z": "296.56"
                    }
                }
            },
            {
                "path": "\/mnt\/d\/Bachelor\/AutoAtlas\/data\/Physiological\/Phys_Bal_17\/VTK Models\/Ulna right.vtk",
                "side": "r",
                "landmarks": {
                    "RAF_D": {
                        "x": "-9.2892",
                        "y": "255.62",
                        "z": "302.32"
                    },
                    "CBD_U": {
                        "x": "-19.654",
                        "y": "250.21",
                        "z": "235.65"
                    },
                    "CBP_U": {
                        "x": "-26.554",
                        "y": "245.33",
                        "z": "199.17"
                    },
                    "AB_U": {
                        "x": "-17.07",
                        "y": "253.15",
                        "z": "250.21"
                    },
                    "DOB_U": {
                        "x": "-14.483",
                        "y": "253.89",
                        "z": "269.86"
                    },
                    "POC_U": {
                        "x": "-42.81",
                        "y": "241.93",
                        "z": "111.2"
                    },
                    "DOAC_U": {
                        "x": "-34.001",
                        "y": "242.08",
                        "z": "150.96"
                    },
                    "DRULs_U": {
                        "x": "-16.376",
                        "y": "258.1",
                        "z": "306.47"
                    },
                    "DRULd_U": {
                        "x": "-14.158",
                        "y": "254.62",
                        "z": "301.96"
                    },
                    "PRULs_U": {
                        "x": "-16.125",
                        "y": "261.73",
                        "z": "305.28"
                    },
                    "PRULd_U": {
                        "x": "-12.854",
                        "y": "261.56",
                        "z": "301.23"
                    }
                }
            },
            {
                "path": "\/mnt\/d\/Bachelor\/AutoAtlas\/data\/Physiological\/Phys_Bal_18\/VTK Models\/Ulna right.vtk",
                "side": "r",
                "landmarks": {
                    "RAF_D": {
                        "x": "13.919",
                        "y": "-56.468",
                        "z": "631.99"
                    },
                    "CBD_U": {
                        "x": "20.89",
                        "y": "-56.276",
                        "z": "556.86"
                    },
                    "CBP_U": {
                        "x": "26.88",
                        "y": "-56.715",
                        "z": "515.93"
                    },
                    "AB_U": {
                        "x": "18.419",
                        "y": "-55.602",
                        "z": "573.28"
                    },
                    "DOB_U": {
                        "x": "16.812",
                        "y": "-56.431",
                        "z": "594.35"
                    },
                    "POC_U": {
                        "x": "35.344",
                        "y": "-53.759",
                        "z": "418.34"
                    },
                    "DOAC_U": {
                        "x": "32.587",
                        "y": "-57.779",
                        "z": "461.4"
                    },
                    "DRULs_U": {
                        "x": "20.792",
                        "y": "-53.025",
                        "z": "635.42"
                    },
                    "DRULd_U": {
                        "x": "19.082",
                        "y": "-55.642",
                        "z": "632.63"
                    },
                    "PRULs_U": {
                        "x": "19.26",
                        "y": "-49.8",
                        "z": "635.51"
                    },
                    "PRULd_U": {
                        "x": "16.573",
                        "y": "-50.619",
                        "z": "632.47"
                    }
                }
            }
        ]
    }
}
