{
    "atlas_path": "\/mnt\/d\/Bachelor\/AutoAtlas\/build\/datadir\/ulna\/right\/5\/atlas_tune176\/enhancedStatisticalModel.h5",
    "patient_path": "\/mnt\/d\/Bachelor\/AutoAtlas\/data\/Physiological\/Phys_Bal_13\/VTK Models\/Ulna right.vtk",
    "type": "ulna",
    "align_iter": "1000",
    "fit_iter": "1500",
    "vtk_output_path": "\/mnt\/d\/Bachelor\/AutoAtlas\/build\/datadir\/ulna\/right\/5\/atlas_tune176\/output.vtk",
    "json_output_path": "\/mnt\/d\/Bachelor\/AutoAtlas\/build\/datadir\/ulna\/right\/5\/atlas_tune176\/output.json",
    "scalismo_gui_path": "\/mnt\/d\/Bachelor\/AutoAtlas\/build\/datadir\/ulna\/right\/5\/atlas_tune176\/output.txt",
    "landmarks": {
        "RAF_D": {
            "x": "12.144",
            "y": "246.53",
            "z": "321.28"
        },
        "CBD_U": {
            "x": "19.502",
            "y": "243.89",
            "z": "251.41"
        },
        "CBP_U": {
            "x": "26.279",
            "y": "239.32",
            "z": "212.11"
        },
        "AB_U": {
            "x": "17.377",
            "y": "245.54",
            "z": "267.06"
        },
        "DOB_U": {
            "x": "15.609",
            "y": "244.96",
            "z": "287.84"
        },
        "POC_U": {
            "x": "42.408",
            "y": "235.6",
            "z": "119.56"
        },
        "DOAC_U": {
            "x": "32.788",
            "y": "238.41",
            "z": "159.87"
        },
        "DRULs_U": {
            "x": "20.582",
            "y": "248.51",
            "z": "327.22"
        },
        "DRULd_U": {
            "x": "17.53",
            "y": "244.71",
            "z": "322.13"
        },
        "PRULs_U": {
            "x": "19.358",
            "y": "253.17",
            "z": "327.13"
        },
        "PRULd_U": {
            "x": "17.095",
            "y": "253.84",
            "z": "322.25"
        }
    }
}
