{
    "error_sum": "32.512930519278385",
    "squared_error_sum": "118.87005921827556",
    "detailed_errors": {
        "AB_U": "3.1959663074060671",
        "CBD_U": "2.9579792136463432",
        "CBP_U": "4.9637901504082587",
        "DOAC_U": "5.8711660652976381",
        "DOB_U": "2.0368459846730498",
        "DRULd_U": "2.2070766806375279",
        "DRULs_U": "2.6197804949310455",
        "POC_U": "4.2311166226395338",
        "PRULd_U": "0.91927649930374655",
        "PRULs_U": "1.8097604657710875",
        "RAF_D": "1.7001720345640892"
    },
    "scalismo_gui_path": "\/mnt\/d\/Bachelor\/AutoAtlas\/build\/datadir\/ulna\/right\/5\/atlas_tune130\/output.txt",
    "vtk_path": "\/mnt\/d\/Bachelor\/AutoAtlas\/build\/datadir\/ulna\/right\/5\/atlas_tune130\/output.vtk",
    "patient": "\/mnt\/d\/Bachelor\/AutoAtlas\/data\/Physiological\/Phys_Bal_13\/VTK Models\/Ulna right.vtk",
    "landmarks": {
        "AB_U": {
            "x": "8.9864997863769531",
            "y": "244.62335205078125",
            "z": "275.46847534179688"
        },
        "CBD_U": {
            "x": "11.758977890014648",
            "y": "244.75459289550781",
            "z": "260.80868530273438"
        },
        "CBP_U": {
            "x": "17.289020538330078",
            "y": "245.9854736328125",
            "z": "223.79483032226562"
        },
        "DOAC_U": {
            "x": "29.94371223449707",
            "y": "246.1597900390625",
            "z": "174.4420166015625"
        },
        "DOB_U": {
            "x": "4.8960986137390137",
            "y": "242.58963012695312",
            "z": "295.1671142578125"
        },
        "DRULd_U": {
            "x": "4.7188782691955566",
            "y": "243.05426025390625",
            "z": "329.1925048828125"
        },
        "DRULs_U": {
            "x": "6.8555879592895508",
            "y": "245.58631896972656",
            "z": "333.54769897460938"
        },
        "POC_U": {
            "x": "40.719585418701172",
            "y": "247.42683410644531",
            "z": "133.03921508789062"
        },
        "PRULd_U": {
            "x": "0.60621148347854614",
            "y": "249.99171447753906",
            "z": "330.2305908203125"
        },
        "PRULs_U": {
            "x": "2.2967901229858398",
            "y": "251.10409545898438",
            "z": "333.42364501953125"
        },
        "RAF_D": {
            "x": "-1.2257813215255737",
            "y": "243.50767517089844",
            "z": "328.95669555664062"
        }
    }
}
