{
    "error_sum": "30.668032363071767",
    "squared_error_sum": "92.324022880092301",
    "detailed_errors": {
        "AB_U": "3.1661723984109167",
        "CBD_U": "2.8869703085307052",
        "CBP_U": "3.8368177383038184",
        "DOAC_U": "3.9428453981684957",
        "DOB_U": "2.1061682162190425",
        "DRULd_U": "2.2486846415212836",
        "DRULs_U": "2.3654278686044656",
        "POC_U": "2.581106027542071",
        "PRULd_U": "1.3176211462629803",
        "PRULs_U": "3.7755224215618224",
        "RAF_D": "2.4406961979461674"
    },
    "scalismo_gui_path": "\/mnt\/d\/Bachelor\/AutoAtlas\/build\/datadir\/ulna\/right\/5\/atlas_tune132\/output.txt",
    "vtk_path": "\/mnt\/d\/Bachelor\/AutoAtlas\/build\/datadir\/ulna\/right\/5\/atlas_tune132\/output.vtk",
    "patient": "\/mnt\/d\/Bachelor\/AutoAtlas\/data\/Physiological\/Phys_Bal_13\/VTK Models\/Ulna right.vtk",
    "landmarks": {
        "AB_U": {
            "x": "9.0287265777587891",
            "y": "244.62506103515625",
            "z": "274.85134887695312"
        },
        "CBD_U": {
            "x": "12.08259391784668",
            "y": "244.79570007324219",
            "z": "259.67489624023438"
        },
        "CBP_U": {
            "x": "17.722576141357422",
            "y": "246.13191223144531",
            "z": "221.82354736328125"
        },
        "DOAC_U": {
            "x": "31.070947647094727",
            "y": "246.57080078125",
            "z": "171.75759887695312"
        },
        "DOB_U": {
            "x": "4.9622907638549805",
            "y": "242.58621215820312",
            "z": "295.111328125"
        },
        "DRULd_U": {
            "x": "4.7398796081542969",
            "y": "243.19656372070312",
            "z": "329.47988891601562"
        },
        "DRULs_U": {
            "x": "6.847282886505127",
            "y": "245.85072326660156",
            "z": "333.92742919921875"
        },
        "POC_U": {
            "x": "40.672435760498047",
            "y": "247.07823181152344",
            "z": "131.35829162597656"
        },
        "PRULd_U": {
            "x": "1.0819116830825806",
            "y": "249.99040222167969",
            "z": "330.93197631835938"
        },
        "PRULs_U": {
            "x": "6.2901129722595215",
            "y": "251.09123229980469",
            "z": "333.96319580078125"
        },
        "RAF_D": {
            "x": "-0.7343745231628418",
            "y": "244.05795288085938",
            "z": "329.2296142578125"
        }
    }
}
