{
    "error_sum": "37.239167562635203",
    "squared_error_sum": "141.82509067268683",
    "detailed_errors": {
        "AB_U": "3.4589836819182227",
        "CBD_U": "2.8816938017664202",
        "CBP_U": "3.8721310588901923",
        "DOAC_U": "5.8711660652976381",
        "DOB_U": "3.2926235605448331",
        "DRULd_U": "2.3804672843692933",
        "DRULs_U": "3.4690372488412677",
        "POC_U": "4.9106230361112448",
        "PRULd_U": "1.6164808387152012",
        "PRULs_U": "3.6850650904918032",
        "RAF_D": "1.8008958956890908"
    },
    "scalismo_gui_path": "\/mnt\/d\/Bachelor\/AutoAtlas\/build\/datadir\/ulna\/right\/5\/atlas_tune1\/output.txt",
    "vtk_path": "\/mnt\/d\/Bachelor\/AutoAtlas\/build\/datadir\/ulna\/right\/5\/atlas_tune1\/output.vtk",
    "patient": "\/mnt\/d\/Bachelor\/AutoAtlas\/data\/Physiological\/Phys_Bal_13\/VTK Models\/Ulna right.vtk",
    "landmarks": {
        "AB_U": {
            "x": "9.1161603927612305",
            "y": "244.611083984375",
            "z": "273.621826171875"
        },
        "CBD_U": {
            "x": "12.094287872314453",
            "y": "244.79093933105469",
            "z": "259.52725219726562"
        },
        "CBP_U": {
            "x": "17.406604766845703",
            "y": "245.37057495117188",
            "z": "222.79566955566406"
        },
        "DOAC_U": {
            "x": "29.94371223449707",
            "y": "246.1597900390625",
            "z": "174.4420166015625"
        },
        "DOB_U": {
            "x": "5.4092111587524414",
            "y": "242.86219787597656",
            "z": "293.18038940429688"
        },
        "DRULd_U": {
            "x": "4.8539514541625977",
            "y": "243.18161010742188",
            "z": "329.20391845703125"
        },
        "DRULs_U": {
            "x": "7.4449973106384277",
            "y": "246.35488891601562",
            "z": "332.8572998046875"
        },
        "POC_U": {
            "x": "39.732509613037109",
            "y": "247.88946533203125",
            "z": "133.35198974609375"
        },
        "PRULd_U": {
            "x": "1.8748321533203125",
            "y": "251.75103759765625",
            "z": "329.37771606445312"
        },
        "PRULs_U": {
            "x": "4.8416786193847656",
            "y": "252.19520568847656",
            "z": "332.58551025390625"
        },
        "RAF_D": {
            "x": "-1.7752995491027832",
            "y": "244.34757995605469",
            "z": "328.73199462890625"
        }
    }
}
