{
    "error_sum": "35.275049301944172",
    "squared_error_sum": "116.11646236080048",
    "detailed_errors": {
        "AB_U": "3.1827840772499494",
        "CBD_U": "2.9217122483414628",
        "CBP_U": "3.8486832465618326",
        "DOAC_U": "4.2614069240945991",
        "DOB_U": "3.0161552662704429",
        "DRULd_U": "3.0918383476573865",
        "DRULs_U": "2.9053350078470839",
        "POC_U": "3.2334256811026294",
        "PRULd_U": "2.3924079679268901",
        "PRULs_U": "3.7515557329276676",
        "RAF_D": "2.6697448019642258"
    },
    "scalismo_gui_path": "\/mnt\/d\/Bachelor\/AutoAtlas\/build\/datadir\/ulna\/right\/5\/atlas_tune18\/output.txt",
    "vtk_path": "\/mnt\/d\/Bachelor\/AutoAtlas\/build\/datadir\/ulna\/right\/5\/atlas_tune18\/output.vtk",
    "patient": "\/mnt\/d\/Bachelor\/AutoAtlas\/data\/Physiological\/Phys_Bal_13\/VTK Models\/Ulna right.vtk",
    "landmarks": {
        "AB_U": {
            "x": "8.9924354553222656",
            "y": "244.6263427734375",
            "z": "275.3741455078125"
        },
        "CBD_U": {
            "x": "12.058443069458008",
            "y": "244.8055419921875",
            "z": "259.97976684570312"
        },
        "CBP_U": {
            "x": "17.721645355224609",
            "y": "246.14115905761719",
            "z": "221.83341979980469"
        },
        "DOAC_U": {
            "x": "30.141323089599609",
            "y": "246.09561157226562",
            "z": "172.72492980957031"
        },
        "DOB_U": {
            "x": "5.9421286582946777",
            "y": "242.64305114746094",
            "z": "295.48410034179688"
        },
        "DRULd_U": {
            "x": "5.3983402252197266",
            "y": "243.73457336425781",
            "z": "329.46749877929688"
        },
        "DRULs_U": {
            "x": "7.3553080558776855",
            "y": "246.96482849121094",
            "z": "333.99993896484375"
        },
        "POC_U": {
            "x": "40.872707366943359",
            "y": "247.18548583984375",
            "z": "132.07614135742188"
        },
        "PRULd_U": {
            "x": "2.776914119720459",
            "y": "251.98542785644531",
            "z": "330.4451904296875"
        },
        "PRULs_U": {
            "x": "6.2689595222473145",
            "y": "251.10357666015625",
            "z": "333.98455810546875"
        },
        "RAF_D": {
            "x": "-0.39753526449203491",
            "y": "243.84324645996094",
            "z": "329.35787963867188"
        }
    }
}
