{
    "error_sum": "34.423072476793529",
    "squared_error_sum": "134.78126698596657",
    "detailed_errors": {
        "AB_U": "3.0963915475349726",
        "CBD_U": "3.5901160633572502",
        "CBP_U": "5.3721835720837667",
        "DOAC_U": "6.0204709027087979",
        "DOB_U": "1.2697098941235914",
        "DRULd_U": "2.5072752393089948",
        "DRULs_U": "2.0598220190905385",
        "POC_U": "4.4778697178819034",
        "PRULd_U": "0.67633022408426735",
        "PRULs_U": "3.0090783718181986",
        "RAF_D": "2.3438249248012446"
    },
    "scalismo_gui_path": "\/mnt\/d\/Bachelor\/AutoAtlas\/build\/datadir\/ulna\/right\/5\/atlas_tune242\/output.txt",
    "vtk_path": "\/mnt\/d\/Bachelor\/AutoAtlas\/build\/datadir\/ulna\/right\/5\/atlas_tune242\/output.vtk",
    "patient": "\/mnt\/d\/Bachelor\/AutoAtlas\/data\/Physiological\/Phys_Bal_13\/VTK Models\/Ulna right.vtk",
    "landmarks": {
        "AB_U": {
            "x": "8.3409156799316406",
            "y": "244.38766479492188",
            "z": "276.56832885742188"
        },
        "CBD_U": {
            "x": "11.938567161560059",
            "y": "244.87229919433594",
            "z": "261.617431640625"
        },
        "CBP_U": {
            "x": "17.070755004882812",
            "y": "245.25175476074219",
            "z": "224.75567626953125"
        },
        "DOAC_U": {
            "x": "29.931789398193359",
            "y": "246.16644287109375",
            "z": "174.59657287597656"
        },
        "DOB_U": {
            "x": "3.8635656833648682",
            "y": "242.64291381835938",
            "z": "296.03744506835938"
        },
        "DRULd_U": {
            "x": "4.6805925369262695",
            "y": "243.52362060546875",
            "z": "330.48971557617188"
        },
        "DRULs_U": {
            "x": "6.6405715942382812",
            "y": "247.02191162109375",
            "z": "334.91580200195312"
        },
        "POC_U": {
            "x": "39.276500701904297",
            "y": "248.09347534179688",
            "z": "132.50167846679688"
        },
        "PRULd_U": {
            "x": "1.009535551071167",
            "y": "250.52096557617188",
            "z": "330.51986694335938"
        },
        "PRULs_U": {
            "x": "4.8271822929382324",
            "y": "252.14056396484375",
            "z": "333.70492553710938"
        },
        "RAF_D": {
            "x": "-1.3589751720428467",
            "y": "244.69252014160156",
            "z": "328.9344482421875"
        }
    }
}
