{
    "error_sum": "53.902167482516951",
    "squared_error_sum": "398.15967756209506",
    "detailed_errors": {
        "AB_U": "2.5895090855720282",
        "CBD_U": "2.2254581637570667",
        "CBP_U": "8.5041050709134929",
        "DOAC_U": "12.814298842247366",
        "DOB_U": "3.2098651084101033",
        "DRULd_U": "3.2294039335054543",
        "DRULs_U": "3.7074267385131456",
        "POC_U": "9.621616625442325",
        "PRULd_U": "1.7851032864826681",
        "PRULs_U": "3.566233189936705",
        "RAF_D": "2.6491474377366049"
    },
    "scalismo_gui_path": "\/mnt\/d\/Bachelor\/AutoAtlas\/build\/datadir\/ulna\/right\/5\/atlas_tune232\/output.txt",
    "vtk_path": "\/mnt\/d\/Bachelor\/AutoAtlas\/build\/datadir\/ulna\/right\/5\/atlas_tune232\/output.vtk",
    "patient": "\/mnt\/d\/Bachelor\/AutoAtlas\/data\/Physiological\/Phys_Bal_13\/VTK Models\/Ulna right.vtk",
    "landmarks": {
        "AB_U": {
            "x": "8.3474264144897461",
            "y": "244.37457275390625",
            "z": "274.32476806640625"
        },
        "CBD_U": {
            "x": "11.056429862976074",
            "y": "244.49041748046875",
            "z": "260.57247924804688"
        },
        "CBP_U": {
            "x": "16.368133544921875",
            "y": "245.07461547851562",
            "z": "228.14404296875"
        },
        "DOAC_U": {
            "x": "28.470096588134766",
            "y": "245.97332763671875",
            "z": "181.52381896972656"
        },
        "DOB_U": {
            "x": "5.2644362449645996",
            "y": "242.84574890136719",
            "z": "293.15420532226562"
        },
        "DRULd_U": {
            "x": "5.3279538154602051",
            "y": "243.87905883789062",
            "z": "330.56536865234375"
        },
        "DRULs_U": {
            "x": "7.5160493850708008",
            "y": "248.33348083496094",
            "z": "333.91351318359375"
        },
        "POC_U": {
            "x": "38.570571899414062",
            "y": "248.54109191894531",
            "z": "137.97021484375"
        },
        "PRULd_U": {
            "x": "2.2310094833374023",
            "y": "251.70903015136719",
            "z": "330.40359497070312"
        },
        "PRULs_U": {
            "x": "5.6786847114562988",
            "y": "251.86091613769531",
            "z": "333.62881469726562"
        },
        "RAF_D": {
            "x": "-0.82527667284011841",
            "y": "244.50770568847656",
            "z": "329.29620361328125"
        }
    }
}
