"18e7307b-695e-4102-90d4-8edaa81f12c1:0","18e7307b-695e-4102-90d4-8edaa81f12c1:1","18e7307b-695e-4102-90d4-8edaa81f12c1:2","18e7307b-695e-4102-90d4-8edaa81f12c1:3"
1,-16.023,240.84,240.79
1,-15.623,240.64,177.56
1,-16.662,240.77,143.17
1,-14.239,240.2,191.38
1,-14.54,239.76,209.15
1,-13.074,254.1,61.247
1,-19.827,243.97,97.639
1,-24.703,240.48,244.03
1,-20.75,237.25,240.41
1,-23.966,242.7,244.52
1,-19.977,245.23,241.33
