"47552621-f89a-4a1d-b0f9-9dc0c827b405:0","47552621-f89a-4a1d-b0f9-9dc0c827b405:1","47552621-f89a-4a1d-b0f9-9dc0c827b405:2","47552621-f89a-4a1d-b0f9-9dc0c827b405:3"
1,-37.709,226.73,103.55
1,-27.159,239.47,192.58
1,-31.693,237.56,171.01
1,-22.236,243.1,223.19
1,-17.252,254.09,275.42
1,-36.759,236.05,142.49
1,-31.3,237.08,175.62
1,-23.483,247.02,287.14
1,-21.913,261.13,289.6
