{
    "error_sum": "34.367001758950359",
    "squared_error_sum": "127.07888712138335",
    "detailed_errors": {
        "AB_U": "3.1508949428935153",
        "CBD_U": "3.5555309164988813",
        "CBP_U": "4.7839297078489516",
        "DOAC_U": "5.9014335104527351",
        "DOB_U": "1.2697098941235914",
        "DRULd_U": "2.6274316240629845",
        "DRULs_U": "2.1534990104180589",
        "POC_U": "4.0504157244071779",
        "PRULd_U": "1.3622660027425735",
        "PRULs_U": "3.0648341715709404",
        "RAF_D": "2.4470562539309473"
    },
    "scalismo_gui_path": "\/mnt\/d\/Bachelor\/AutoAtlas\/build\/datadir\/ulna\/right\/5\/atlas_tune243\/output.txt",
    "vtk_path": "\/mnt\/d\/Bachelor\/AutoAtlas\/build\/datadir\/ulna\/right\/5\/atlas_tune243\/output.vtk",
    "patient": "\/mnt\/d\/Bachelor\/AutoAtlas\/data\/Physiological\/Phys_Bal_13\/VTK Models\/Ulna right.vtk",
    "landmarks": {
        "AB_U": {
            "x": "8.3490133285522461",
            "y": "244.39102172851562",
            "z": "276.65237426757812"
        },
        "CBD_U": {
            "x": "11.943193435668945",
            "y": "244.86984252929688",
            "z": "261.558837890625"
        },
        "CBP_U": {
            "x": "17.185176849365234",
            "y": "245.33685302734375",
            "z": "224.00837707519531"
        },
        "DOAC_U": {
            "x": "30.028263092041016",
            "y": "246.2095947265625",
            "z": "174.44923400878906"
        },
        "DOB_U": {
            "x": "3.8635656833648682",
            "y": "242.64291381835938",
            "z": "296.03744506835938"
        },
        "DRULd_U": {
            "x": "4.80462646484375",
            "y": "243.58720397949219",
            "z": "330.4566650390625"
        },
        "DRULs_U": {
            "x": "6.7359476089477539",
            "y": "247.02630615234375",
            "z": "334.85076904296875"
        },
        "POC_U": {
            "x": "39.395938873291016",
            "y": "247.94625854492188",
            "z": "132.09843444824219"
        },
        "PRULd_U": {
            "x": "1.8492774963378906",
            "y": "251.52554321289062",
            "z": "330.36959838867188"
        },
        "PRULs_U": {
            "x": "4.9902949333190918",
            "y": "252.06741333007812",
            "z": "333.75390625"
        },
        "RAF_D": {
            "x": "-1.2554329633712769",
            "y": "244.73223876953125",
            "z": "328.994384765625"
        }
    }
}
