{
    "error_sum": "37.001556858309861",
    "squared_error_sum": "174.26102757911127",
    "detailed_errors": {
        "AB_U": "3.4532463353439806",
        "CBD_U": "4.0537478580243933",
        "CBP_U": "5.7391864663797207",
        "DOAC_U": "7.8254823164188396",
        "DOB_U": "2.1061701061742872",
        "DRULd_U": "2.0870757122506443",
        "DRULs_U": "1.2302755849348912",
        "POC_U": "5.7603484895122783",
        "PRULd_U": "0.90447879031998468",
        "PRULs_U": "1.7742053292625477",
        "RAF_D": "2.0673398696883001"
    },
    "scalismo_gui_path": "\/mnt\/d\/Bachelor\/AutoAtlas\/build\/datadir\/ulna\/right\/5\/atlas_tune70\/output.txt",
    "vtk_path": "\/mnt\/d\/Bachelor\/AutoAtlas\/build\/datadir\/ulna\/right\/5\/atlas_tune70\/output.vtk",
    "patient": "\/mnt\/d\/Bachelor\/AutoAtlas\/data\/Physiological\/Phys_Bal_13\/VTK Models\/Ulna right.vtk",
    "landmarks": {
        "AB_U": {
            "x": "8.9297637939453125",
            "y": "244.58921813964844",
            "z": "276.37460327148438"
        },
        "CBD_U": {
            "x": "11.88264274597168",
            "y": "244.89671325683594",
            "z": "262.33016967773438"
        },
        "CBP_U": {
            "x": "17.883260726928711",
            "y": "243.4342041015625",
            "z": "225.98750305175781"
        },
        "DOAC_U": {
            "x": "29.782060623168945",
            "y": "246.28083801269531",
            "z": "176.44561767578125"
        },
        "DOB_U": {
            "x": "4.9623904228210449",
            "y": "242.58059692382812",
            "z": "295.11419677734375"
        },
        "DRULd_U": {
            "x": "4.4554705619812012",
            "y": "243.23703002929688",
            "z": "330.19174194335938"
        },
        "DRULs_U": {
            "x": "5.9967184066772461",
            "y": "246.19882202148438",
            "z": "334.80755615234375"
        },
        "POC_U": {
            "x": "39.500865936279297",
            "y": "248.05914306640625",
            "z": "134.17005920410156"
        },
        "PRULd_U": {
            "x": "0.81783419847488403",
            "y": "250.0965576171875",
            "z": "330.48150634765625"
        },
        "PRULs_U": {
            "x": "2.9779443740844727",
            "y": "251.70880126953125",
            "z": "333.83392333984375"
        },
        "RAF_D": {
            "x": "-1.4430216550827026",
            "y": "244.40007019042969",
            "z": "328.9217529296875"
        }
    }
}
