{
    "error_sum": "38.774550436847143",
    "squared_error_sum": "178.02413715271626",
    "detailed_errors": {
        "AB_U": "3.2094935259153052",
        "CBD_U": "3.0654103152576688",
        "CBP_U": "5.7588728359033565",
        "DOAC_U": "7.8254823164188396",
        "DOB_U": "3.1331800360142941",
        "DRULd_U": "2.0370947088337923",
        "DRULs_U": "3.2179472825136224",
        "POC_U": "5.4742323529641466",
        "PRULd_U": "1.07133751421041",
        "PRULs_U": "2.5203006587280647",
        "RAF_D": "1.4611988900876389"
    },
    "scalismo_gui_path": "\/mnt\/d\/Bachelor\/AutoAtlas\/build\/datadir\/ulna\/right\/5\/output.txt",
    "vtk_path": "\/mnt\/d\/Bachelor\/AutoAtlas\/build\/datadir\/ulna\/right\/5\/output.vtk",
    "patient": "\/mnt\/d\/Bachelor\/AutoAtlas\/data\/Physiological\/Phys_Bal_13\/VTK Models\/Ulna right.vtk",
    "landmarks": {
        "AB_U": {
            "x": "9.0557279586791992",
            "y": "244.61862182617188",
            "z": "274.466796875"
        },
        "CBD_U": {
            "x": "12.014140129089355",
            "y": "244.81825256347656",
            "z": "260.54348754882812"
        },
        "CBP_U": {
            "x": "17.09556770324707",
            "y": "245.91786193847656",
            "z": "224.84298706054688"
        },
        "DOAC_U": {
            "x": "29.782060623168945",
            "y": "246.28083801269531",
            "z": "176.44561767578125"
        },
        "DOB_U": {
            "x": "5.4206795692443848",
            "y": "242.82630920410156",
            "z": "293.45098876953125"
        },
        "DRULd_U": {
            "x": "4.5848007202148438",
            "y": "242.92204284667969",
            "z": "329.18402099609375"
        },
        "DRULs_U": {
            "x": "7.0234889984130859",
            "y": "245.52664184570312",
            "z": "332.83685302734375"
        },
        "POC_U": {
            "x": "39.817481994628906",
            "y": "247.91380310058594",
            "z": "134.00987243652344"
        },
        "PRULd_U": {
            "x": "0.54078000783920288",
            "y": "249.83624267578125",
            "z": "330.22332763671875"
        },
        "PRULs_U": {
            "x": "1.9682865142822266",
            "y": "250.74488830566406",
            "z": "332.67520141601562"
        },
        "RAF_D": {
            "x": "-1.4711804389953613",
            "y": "243.49006652832031",
            "z": "328.87716674804688"
        }
    }
}
