"89ac15fa-7608-4bae-964a-25c38b5503b7:0","89ac15fa-7608-4bae-964a-25c38b5503b7:1","89ac15fa-7608-4bae-964a-25c38b5503b7:2","89ac15fa-7608-4bae-964a-25c38b5503b7:3"
1,0.44553,240.81,58.888
1,10.654,239.57,161.55
1,7.3617,240.89,137.14
1,16.099,238.78,196.95
1,11.699,245.85,259.28
1,1.8813,243.95,104.44
1,7.7674,240.73,141.46
1,8.3255,236.29,267.57
1,10.333,250.97,266.05
