"c8962b26-f13f-4aaf-98b3-c9c60c5333e6:0","c8962b26-f13f-4aaf-98b3-c9c60c5333e6:1","c8962b26-f13f-4aaf-98b3-c9c60c5333e6:2","c8962b26-f13f-4aaf-98b3-c9c60c5333e6:3"
1,0.40186,242.27,268.83
1,1.9751,246.27,202.37
1,0.026939,247.47,165.89
1,2.4191,246.58,216.75
1,2.5136,244.94,235.86
1,-7.8555,250.44,78.908
1,-2.7267,250.71,118.34
1,-5.5699,246.61,272.46
1,-3.8736,243.18,268.3
1,-3.7024,248.68,272.35
1,0.03171,247.97,268.39
