"5d583e39-0818-47e1-8f1a-ad820814fccb:0","5d583e39-0818-47e1-8f1a-ad820814fccb:1","5d583e39-0818-47e1-8f1a-ad820814fccb:2","5d583e39-0818-47e1-8f1a-ad820814fccb:3"
1,-13.275,243.27,276.68
1,-13.369,242.72,211.2
1,-13.663,238.45,175.95
1,-13.131,243.2,225.81
1,-12.537,243.05,244.72
1,-8.8911,241.08,90.252
1,-17.77,235.95,128.53
1,-21.189,246,279.32
1,-18.397,243.56,277.23
1,-20.345,248,279.67
1,-16.377,248.86,275.87
