{
    "error_sum": "32.215151691587465",
    "squared_error_sum": "116.38229288749655",
    "detailed_errors": {
        "AB_U": "3.1827840772499494",
        "CBD_U": "3.0654119912449325",
        "CBP_U": "4.6210510071633166",
        "DOAC_U": "5.8711660652976381",
        "DOB_U": "2.4254977492570919",
        "DRULd_U": "2.25242101274329",
        "DRULs_U": "2.4512798420556363",
        "POC_U": "4.2311166226395338",
        "PRULd_U": "0.7878713805885923",
        "PRULs_U": "1.5945423011177411",
        "RAF_D": "1.7320096422297477"
    },
    "scalismo_gui_path": "\/mnt\/d\/Bachelor\/AutoAtlas\/build\/datadir\/ulna\/right\/5\/atlas_tune129\/output.txt",
    "vtk_path": "\/mnt\/d\/Bachelor\/AutoAtlas\/build\/datadir\/ulna\/right\/5\/atlas_tune129\/output.vtk",
    "patient": "\/mnt\/d\/Bachelor\/AutoAtlas\/data\/Physiological\/Phys_Bal_13\/VTK Models\/Ulna right.vtk",
    "landmarks": {
        "AB_U": {
            "x": "8.9924354553222656",
            "y": "244.6263427734375",
            "z": "275.3741455078125"
        },
        "CBD_U": {
            "x": "12.014016151428223",
            "y": "244.82363891601562",
            "z": "260.54061889648438"
        },
        "CBP_U": {
            "x": "17.381891250610352",
            "y": "245.99127197265625",
            "z": "223.31962585449219"
        },
        "DOAC_U": {
            "x": "29.94371223449707",
            "y": "246.1597900390625",
            "z": "174.4420166015625"
        },
        "DOB_U": {
            "x": "5.1635799407958984",
            "y": "242.6832275390625",
            "z": "294.47613525390625"
        },
        "DRULd_U": {
            "x": "4.7426695823669434",
            "y": "243.19924926757812",
            "z": "329.480224609375"
        },
        "DRULs_U": {
            "x": "6.9624190330505371",
            "y": "246.14436340332031",
            "z": "333.93060302734375"
        },
        "POC_U": {
            "x": "40.719585418701172",
            "y": "247.42683410644531",
            "z": "133.03921508789062"
        },
        "PRULd_U": {
            "x": "0.66441142559051514",
            "y": "250.12490844726562",
            "z": "330.2396240234375"
        },
        "PRULs_U": {
            "x": "2.3793413639068604",
            "y": "251.11419677734375",
            "z": "333.6475830078125"
        },
        "RAF_D": {
            "x": "-1.1935229301452637",
            "y": "243.50921630859375",
            "z": "328.967529296875"
        }
    }
}
