"f8828f06-b8e8-435b-9814-c18785c69768:0","f8828f06-b8e8-435b-9814-c18785c69768:1","f8828f06-b8e8-435b-9814-c18785c69768:2","f8828f06-b8e8-435b-9814-c18785c69768:3"
1,-46.409,219.11,132.06
1,-20.718,224.89,231.1
1,-30.279,223.96,208.16
1,-12.395,225.83,266.23
1,-7.4425,238.97,326.68
1,-37.941,225.91,175.67
1,-29.361,223.99,212.36
1,-8.2277,229.96,338.32
1,-7.4926,244.01,332.64
