{
    "error_sum": "41.90356057996113",
    "squared_error_sum": "191.76956704874459",
    "detailed_errors": {
        "AB_U": "3.7084029440685216",
        "CBD_U": "4.6727651507252066",
        "CBP_U": "5.728436448606498",
        "DOAC_U": "7.285384590707312",
        "DOB_U": "1.6835457850575763",
        "DRULd_U": "2.5076796124657692",
        "DRULs_U": "2.1615530683353885",
        "POC_U": "5.6807289171591302",
        "PRULd_U": "2.3924079679268901",
        "PRULs_U": "3.0095231500953283",
        "RAF_D": "3.0731329448135059"
    },
    "scalismo_gui_path": "\/mnt\/d\/Bachelor\/AutoAtlas\/build\/datadir\/ulna\/right\/5\/atlas_tune88\/output.txt",
    "vtk_path": "\/mnt\/d\/Bachelor\/AutoAtlas\/build\/datadir\/ulna\/right\/5\/atlas_tune88\/output.vtk",
    "patient": "\/mnt\/d\/Bachelor\/AutoAtlas\/data\/Physiological\/Phys_Bal_13\/VTK Models\/Ulna right.vtk",
    "landmarks": {
        "AB_U": {
            "x": "8.3316555023193359",
            "y": "244.389404296875",
            "z": "277.50714111328125"
        },
        "CBD_U": {
            "x": "11.289159774780273",
            "y": "244.77714538574219",
            "z": "263.4715576171875"
        },
        "CBP_U": {
            "x": "17.874135971069336",
            "y": "243.44630432128906",
            "z": "225.97077941894531"
        },
        "DOAC_U": {
            "x": "29.863235473632812",
            "y": "246.25938415527344",
            "z": "175.88688659667969"
        },
        "DOB_U": {
            "x": "4.2915043830871582",
            "y": "242.53807067871094",
            "z": "296.14410400390625"
        },
        "DRULd_U": {
            "x": "4.6140251159667969",
            "y": "243.53367614746094",
            "z": "330.614501953125"
        },
        "DRULs_U": {
            "x": "6.5842118263244629",
            "y": "247.33126831054688",
            "z": "335.05746459960938"
        },
        "POC_U": {
            "x": "38.422389984130859",
            "y": "248.62715148925781",
            "z": "133.23370361328125"
        },
        "PRULd_U": {
            "x": "2.776914119720459",
            "y": "251.98542785644531",
            "z": "330.4451904296875"
        },
        "PRULs_U": {
            "x": "4.8401155471801758",
            "y": "252.13275146484375",
            "z": "333.71435546875"
        },
        "RAF_D": {
            "x": "-1.2024151086807251",
            "y": "245.47041320800781",
            "z": "328.931640625"
        }
    }
}
