{
    "error_sum": "35.724909057585563",
    "squared_error_sum": "130.83194805667802",
    "detailed_errors": {
        "AB_U": "3.3068757082193048",
        "CBD_U": "2.8816938017664202",
        "CBP_U": "4.3159941128602837",
        "DOAC_U": "5.1614949894985003",
        "DOB_U": "3.082826417462766",
        "DRULd_U": "2.5318533269965009",
        "DRULs_U": "3.4631096991323518",
        "POC_U": "4.2387191263967745",
        "PRULd_U": "1.0713436363465105",
        "PRULs_U": "4.1046858513311903",
        "RAF_D": "1.5663123875749549"
    },
    "scalismo_gui_path": "\/mnt\/d\/Bachelor\/AutoAtlas\/build\/datadir\/ulna\/right\/5\/atlas_tune45\/output.txt",
    "vtk_path": "\/mnt\/d\/Bachelor\/AutoAtlas\/build\/datadir\/ulna\/right\/5\/atlas_tune45\/output.vtk",
    "patient": "\/mnt\/d\/Bachelor\/AutoAtlas\/data\/Physiological\/Phys_Bal_13\/VTK Models\/Ulna right.vtk",
    "landmarks": {
        "AB_U": {
            "x": "9.1374540328979492",
            "y": "244.64653015136719",
            "z": "274.30630493164062"
        },
        "CBD_U": {
            "x": "12.094287872314453",
            "y": "244.79093933105469",
            "z": "259.52725219726562"
        },
        "CBP_U": {
            "x": "17.471538543701172",
            "y": "245.99687194824219",
            "z": "222.86090087890625"
        },
        "DOAC_U": {
            "x": "29.999856948852539",
            "y": "246.13290405273438",
            "z": "173.70182800292969"
        },
        "DOB_U": {
            "x": "5.2935237884521484",
            "y": "242.82778930664062",
            "z": "293.37661743164062"
        },
        "DRULd_U": {
            "x": "4.8436465263366699",
            "y": "242.82798767089844",
            "z": "328.38525390625"
        },
        "DRULs_U": {
            "x": "7.1002593040466309",
            "y": "245.54620361328125",
            "z": "332.561279296875"
        },
        "POC_U": {
            "x": "41.0277099609375",
            "y": "247.48124694824219",
            "z": "133.06028747558594"
        },
        "PRULd_U": {
            "x": "0.54080212116241455",
            "y": "249.842041015625",
            "z": "330.220458984375"
        },
        "PRULs_U": {
            "x": "5.6998095512390137",
            "y": "251.91879272460938",
            "z": "332.62661743164062"
        },
        "RAF_D": {
            "x": "-1.3292610645294189",
            "y": "243.4193115234375",
            "z": "328.92520141601562"
        }
    }
}
