{
    "error_sum": "31.614207290075196",
    "squared_error_sum": "103.96908701238954",
    "detailed_errors": {
        "AB_U": "2.6415886131636657",
        "CBD_U": "2.6102900147915937",
        "CBP_U": "4.0915514734479528",
        "DOAC_U": "5.0516731273187352",
        "DOB_U": "1.4250453173642297",
        "DRULd_U": "2.5623528656444452",
        "DRULs_U": "2.8629362328669647",
        "POC_U": "3.0785348163577324",
        "PRULd_U": "1.6164808387152012",
        "PRULs_U": "4.0489719744361024",
        "RAF_D": "1.6247820159685737"
    },
    "scalismo_gui_path": "\/mnt\/d\/Bachelor\/AutoAtlas\/build\/datadir\/ulna\/right\/5\/atlas_tune6\/output.txt",
    "vtk_path": "\/mnt\/d\/Bachelor\/AutoAtlas\/build\/datadir\/ulna\/right\/5\/atlas_tune6\/output.vtk",
    "patient": "\/mnt\/d\/Bachelor\/AutoAtlas\/data\/Physiological\/Phys_Bal_13\/VTK Models\/Ulna right.vtk",
    "landmarks": {
        "AB_U": {
            "x": "8.3455686569213867",
            "y": "244.39277648925781",
            "z": "275.516357421875"
        },
        "CBD_U": {
            "x": "11.405322074890137",
            "y": "244.62754821777344",
            "z": "260.73333740234375"
        },
        "CBP_U": {
            "x": "17.332096099853516",
            "y": "245.28311157226562",
            "z": "223.16877746582031"
        },
        "DOAC_U": {
            "x": "30.31635856628418",
            "y": "246.29878234863281",
            "z": "173.47222900390625"
        },
        "DOB_U": {
            "x": "4.2711963653564453",
            "y": "242.7408447265625",
            "z": "295.06683349609375"
        },
        "DRULd_U": {
            "x": "4.9014153480529785",
            "y": "242.91964721679688",
            "z": "328.47857666015625"
        },
        "DRULs_U": {
            "x": "7.1656789779663086",
            "y": "246.01347351074219",
            "z": "333.47650146484375"
        },
        "POC_U": {
            "x": "41.245967864990234",
            "y": "247.16964721679688",
            "z": "131.94508361816406"
        },
        "PRULd_U": {
            "x": "1.8748321533203125",
            "y": "251.75103759765625",
            "z": "329.37771606445312"
        },
        "PRULs_U": {
            "x": "5.7119021415710449",
            "y": "251.90414428710938",
            "z": "332.728271484375"
        },
        "RAF_D": {
            "x": "-1.3025290966033936",
            "y": "243.50398254394531",
            "z": "328.93093872070312"
        }
    }
}
