{
    "error_sum": "32.464719363095746",
    "squared_error_sum": "120.76071862508662",
    "detailed_errors": {
        "AB_U": "2.768139929313461",
        "CBD_U": "3.5555268249780192",
        "CBP_U": "4.963794829988931",
        "DOAC_U": "6.2721970149424342",
        "DOB_U": "1.3106389359134416",
        "DRULd_U": "2.0114052862443219",
        "DRULs_U": "2.8717000112305864",
        "POC_U": "3.5700900458373268",
        "PRULd_U": "1.451140874289496",
        "PRULs_U": "2.4801527037556683",
        "RAF_D": "1.2099329066020612"
    },
    "scalismo_gui_path": "\/mnt\/d\/Bachelor\/AutoAtlas\/build\/datadir\/ulna\/right\/5\/atlas_tune83\/output.txt",
    "vtk_path": "\/mnt\/d\/Bachelor\/AutoAtlas\/build\/datadir\/ulna\/right\/5\/atlas_tune83\/output.vtk",
    "patient": "\/mnt\/d\/Bachelor\/AutoAtlas\/data\/Physiological\/Phys_Bal_13\/VTK Models\/Ulna right.vtk",
    "landmarks": {
        "AB_U": {
            "x": "8.4175519943237305",
            "y": "244.4124755859375",
            "z": "275.73574829101562"
        },
        "CBD_U": {
            "x": "11.943315505981445",
            "y": "244.86444091796875",
            "z": "261.56170654296875"
        },
        "CBP_U": {
            "x": "17.289182662963867",
            "y": "245.98028564453125",
            "z": "223.7977294921875"
        },
        "DOAC_U": {
            "x": "30.856645584106445",
            "y": "246.69258117675781",
            "z": "174.52281188964844"
        },
        "DOB_U": {
            "x": "4.1521124839782715",
            "y": "242.76188659667969",
            "z": "295.06204223632812"
        },
        "DRULd_U": {
            "x": "4.4310979843139648",
            "y": "242.48220825195312",
            "z": "328.56893920898438"
        },
        "DRULs_U": {
            "x": "6.1577305793762207",
            "y": "244.77789306640625",
            "z": "332.9349365234375"
        },
        "POC_U": {
            "x": "41.14276123046875",
            "y": "247.31585693359375",
            "z": "132.41415405273438"
        },
        "PRULd_U": {
            "x": "0.38343432545661926",
            "y": "249.47247314453125",
            "z": "330.19879150390625"
        },
        "PRULs_U": {
            "x": "1.7416554689407349",
            "y": "250.12257385253906",
            "z": "332.80838012695312"
        },
        "RAF_D": {
            "x": "-1.6695642471313477",
            "y": "243.34091186523438",
            "z": "328.8187255859375"
        }
    }
}
