{
    "error_sum": "36.037916640602944",
    "squared_error_sum": "151.46353627606896",
    "detailed_errors": {
        "AB_U": "3.4532319141936028",
        "CBD_U": "3.5555309164988813",
        "CBP_U": "5.3772508015038527",
        "DOAC_U": "6.8415670376583453",
        "DOB_U": "1.4606920770681118",
        "DRULd_U": "2.5104735213548981",
        "DRULs_U": "2.1457729580671407",
        "POC_U": "4.7831287596628282",
        "PRULd_U": "0.44695617666228799",
        "PRULs_U": "2.9891804198623113",
        "RAF_D": "2.4741320580706847"
    },
    "scalismo_gui_path": "\/mnt\/d\/Bachelor\/AutoAtlas\/build\/datadir\/ulna\/right\/5\/atlas_tune59\/output.txt",
    "vtk_path": "\/mnt\/d\/Bachelor\/AutoAtlas\/build\/datadir\/ulna\/right\/5\/atlas_tune59\/output.vtk",
    "patient": "\/mnt\/d\/Bachelor\/AutoAtlas\/data\/Physiological\/Phys_Bal_13\/VTK Models\/Ulna right.vtk",
    "landmarks": {
        "AB_U": {
            "x": "8.9296588897705078",
            "y": "244.59471130371094",
            "z": "276.3717041015625"
        },
        "CBD_U": {
            "x": "11.943193435668945",
            "y": "244.86984252929688",
            "z": "261.558837890625"
        },
        "CBP_U": {
            "x": "17.071325302124023",
            "y": "245.26271057128906",
            "z": "224.75616455078125"
        },
        "DOAC_U": {
            "x": "29.86659049987793",
            "y": "246.20286560058594",
            "z": "175.4417724609375"
        },
        "DOB_U": {
            "x": "4.3196573257446289",
            "y": "242.70819091796875",
            "z": "295.1849365234375"
        },
        "DRULd_U": {
            "x": "4.7382664680480957",
            "y": "243.51255798339844",
            "z": "330.37594604492188"
        },
        "DRULs_U": {
            "x": "6.6278228759765625",
            "y": "247.2320556640625",
            "z": "334.99423217773438"
        },
        "POC_U": {
            "x": "39.615310668945312",
            "y": "247.91813659667969",
            "z": "133.14407348632812"
        },
        "PRULd_U": {
            "x": "1.0552222728729248",
            "y": "250.95722961425781",
            "z": "330.29769897460938"
        },
        "PRULs_U": {
            "x": "4.5929765701293945",
            "y": "252.266845703125",
            "z": "333.575927734375"
        },
        "RAF_D": {
            "x": "-1.3815886974334717",
            "y": "244.87637329101562",
            "z": "328.89630126953125"
        }
    }
}
