"ac7a10d2-431f-468a-94af-fdb1c4282527:0","ac7a10d2-431f-468a-94af-fdb1c4282527:1","ac7a10d2-431f-468a-94af-fdb1c4282527:2","ac7a10d2-431f-468a-94af-fdb1c4282527:3"
1,-9.2892,255.62,302.32
1,-19.654,250.21,235.65
1,-26.554,245.33,199.17
1,-17.07,253.15,250.21
1,-14.483,253.89,269.86
1,-28.411,247.38,109.7
1,-34.001,242.08,150.96
1,-16.376,258.1,306.47
1,-14.158,254.62,301.96
1,-16.125,261.73,305.28
1,-12.854,261.56,301.23
