{
    "error_sum": "42.791441079065692",
    "squared_error_sum": "193.07204599163353",
    "detailed_errors": {
        "AB_U": "3.2022882707687863",
        "CBD_U": "3.0591499177331438",
        "CBP_U": "5.1719354788452643",
        "DOAC_U": "6.7169609398029548",
        "DOB_U": "3.6713087937789917",
        "DRULd_U": "2.7261237889219734",
        "DRULs_U": "3.7443978185902882",
        "POC_U": "6.6101638133753395",
        "PRULd_U": "1.6417972181608056",
        "PRULs_U": "3.7390867191648312",
        "RAF_D": "2.5082283199233175"
    },
    "scalismo_gui_path": "\/mnt\/d\/Bachelor\/AutoAtlas\/build\/datadir\/ulna\/right\/5\/atlas_tune225\/output.txt",
    "vtk_path": "\/mnt\/d\/Bachelor\/AutoAtlas\/build\/datadir\/ulna\/right\/5\/atlas_tune225\/output.vtk",
    "patient": "\/mnt\/d\/Bachelor\/AutoAtlas\/data\/Physiological\/Phys_Bal_13\/VTK Models\/Ulna right.vtk",
    "landmarks": {
        "AB_U": {
            "x": "9.0525922775268555",
            "y": "244.62422180175781",
            "z": "274.507568359375"
        },
        "CBD_U": {
            "x": "12.003120422363281",
            "y": "244.820556640625",
            "z": "260.5501708984375"
        },
        "CBP_U": {
            "x": "17.284770965576172",
            "y": "246.14006042480469",
            "z": "223.95423889160156"
        },
        "DOAC_U": {
            "x": "29.408674240112305",
            "y": "245.89570617675781",
            "z": "175.40115356445312"
        },
        "DOB_U": {
            "x": "6.1286640167236328",
            "y": "242.91062927246094",
            "z": "293.49978637695312"
        },
        "DRULd_U": {
            "x": "4.9710650444030762",
            "y": "243.61534118652344",
            "z": "330.27377319335938"
        },
        "DRULs_U": {
            "x": "7.6290760040283203",
            "y": "248.04814147949219",
            "z": "333.58837890625"
        },
        "POC_U": {
            "x": "38.356548309326172",
            "y": "248.68345642089844",
            "z": "134.37501525878906"
        },
        "PRULd_U": {
            "x": "1.9350188970565796",
            "y": "251.76667785644531",
            "z": "329.44894409179688"
        },
        "PRULs_U": {
            "x": "4.9750213623046875",
            "y": "252.15225219726562",
            "z": "332.59188842773438"
        },
        "RAF_D": {
            "x": "-1.3314625024795532",
            "y": "244.87860107421875",
            "z": "328.92752075195312"
        }
    }
}
