{
    "error_sum": "36.32445258367909",
    "squared_error_sum": "138.8293266350683",
    "detailed_errors": {
        "AB_U": "3.1827857366581624",
        "CBD_U": "3.0478453680819517",
        "CBP_U": "4.6082541111440936",
        "DOAC_U": "5.8711607565384654",
        "DOB_U": "2.5571940058779123",
        "DRULd_U": "2.2068050911173285",
        "DRULs_U": "2.7315043775078003",
        "POC_U": "4.6485553791184717",
        "PRULd_U": "1.0784536850983242",
        "PRULs_U": "4.0994610596072087",
        "RAF_D": "2.2924330129293717"
    },
    "scalismo_gui_path": "\/mnt\/d\/Bachelor\/AutoAtlas\/build\/datadir\/ulna\/right\/5\/atlas_tune25\/output.txt",
    "vtk_path": "\/mnt\/d\/Bachelor\/AutoAtlas\/build\/datadir\/ulna\/right\/5\/atlas_tune25\/output.vtk",
    "patient": "\/mnt\/d\/Bachelor\/AutoAtlas\/data\/Physiological\/Phys_Bal_13\/VTK Models\/Ulna right.vtk",
    "landmarks": {
        "AB_U": {
            "x": "8.9925413131713867",
            "y": "244.620849609375",
            "z": "275.37701416015625"
        },
        "CBD_U": {
            "x": "11.983304977416992",
            "y": "244.80953979492188",
            "z": "260.57052612304688"
        },
        "CBP_U": {
            "x": "17.232603073120117",
            "y": "245.37294006347656",
            "z": "223.770263671875"
        },
        "DOAC_U": {
            "x": "29.943939208984375",
            "y": "246.15493774414062",
            "z": "174.44491577148438"
        },
        "DOB_U": {
            "x": "5.3249893188476562",
            "y": "242.68916320800781",
            "z": "294.50881958007812"
        },
        "DRULd_U": {
            "x": "4.7187190055847168",
            "y": "243.04830932617188",
            "z": "329.19534301757812"
        },
        "DRULs_U": {
            "x": "6.9748034477233887",
            "y": "245.70124816894531",
            "z": "333.48556518554688"
        },
        "POC_U": {
            "x": "39.632171630859375",
            "y": "247.892578125",
            "z": "133.00437927246094"
        },
        "PRULd_U": {
            "x": "0.64253765344619751",
            "y": "249.85163879394531",
            "z": "330.36431884765625"
        },
        "PRULs_U": {
            "x": "6.5664548873901367",
            "y": "250.92424011230469",
            "z": "333.68704223632812"
        },
        "RAF_D": {
            "x": "-0.50983995199203491",
            "y": "242.91523742675781",
            "z": "329.109130859375"
        }
    }
}
