{
    "parameters": {
        "rigid_iter": "1000",
        "kernel_sigma": "80",
        "kernel_levels": "4",
        "kernel_scale": "150",
        "gauss_comp": "250",
        "gauss_fit_iter": "1500",
		"landmark_variance": "0.1",
		"atlas_sigma": "300",
		"atlas_scale": "100",
		"atlas_num_comp": "100"
    },
    "bones": {
        "radius": [
            {
                "path": "..\/data\/Physiological\/Phys_Bal_01\/VTK Models\/Radius right.vtk",
                "side": "r",
                "landmarks": {
                    "RAF_P": {
                        "x": "30.993999",
                        "y": "238.95",
                        "z": "113.84"
                    },
                    "CBD_R": {
                        "x": "5.6837001",
                        "y": "239.31",
                        "z": "217.08"
                    },
                    "CBP_R": {
                        "x": "15.39",
                        "y": "240.02",
                        "z": "192.06"
                    },
                    "AB_R": {
                        "x": "-3.8457999",
                        "y": "239.84",
                        "z": "250.89999"
                    },
                    "DOB_R": {
                        "x": "-9.3333998",
                        "y": "249.62",
                        "z": "314.20999"
                    },
                    "POC_R": {
                        "x": "23.459999",
                        "y": "243.34",
                        "z": "159.58"
                    },
                    "DOAC_R": {
                        "x": "14.454",
                        "y": "240.55",
                        "z": "196.49001"
                    },
                    "DRUL_R": {
                        "x": "-8.4691",
                        "y": "239.78",
                        "z": "325.25"
                    },
                    "PRUL_R": {
                        "x": "-7.8659",
                        "y": "254.78",
                        "z": "322.38"
                    }
                }
            },
			{
                "path": "..\/data\/Physiological\/Phys_Bal_02\/VTK Models\/Radius right.vtk",
                "side": "r",
                "landmarks": {
                    "RAF_P": {
                        "x": "21.435",
                        "y": "239.49",
                        "z": "58.82"
                    },
                    "CBD_R": {
                        "x": "6.913",
                        "y": "237.49",
                        "z": "171.5"
                    },
                    "CBP_R": {
                        "x": "12.651",
                        "y": "237.17",
                        "z": "144.17"
                    },
                    "AB_R": {
                        "x": "-0.78655",
                        "y": "237.71",
                        "z": "210.1"
                    },
                    "DOB_R": {
                        "x": "-0.0062037",
                        "y": "243.4",
                        "z": "278.26"
                    },
                    "POC_R": {
                        "x": "17.454",
                        "y": "243.74",
                        "z": "107.37"
                    },
                    "DOAC_R": {
                        "x": "12.247",
                        "y": "236.88",
                        "z": "148.78"
                    },
                    "DRUL_R": {
                        "x": "0.76899",
                        "y": "232.56",
                        "z": "292.09"
                    },
                    "PRUL_R": {
                        "x": "3.8087",
                        "y": "246.01",
                        "z": "288.79"
                    }
                }
            },
			{
                "path": "..\/data\/Physiological\/Phys_Bal_03\/VTK Models\/Radius right.vtk",
                "side": "r",
                "landmarks": {
                    "RAF_P": {
                        "x": "2.8938",
                        "y": "235.92",
                        "z": "96.618"
                    },
                    "CBD_R": {
                        "x": "-2.3356",
                        "y": "236.51",
                        "z": "200.21"
                    },
                    "CBP_R": {
                        "x": "6.1204",
                        "y": "238.3",
                        "z": "175.46"
                    },
                    "AB_R": {
                        "x": "-6.5903",
                        "y": "234.9",
                        "z": "235.8"
                    },
                    "DOB_R": {
                        "x": "-1.5705",
                        "y": "245.45",
                        "z": "297.64"
                    },
                    "POC_R": {
                        "x": "5.4719",
                        "y": "242.22",
                        "z": "141.44"
                    },
                    "DOAC_R": {
                        "x": "4.6644",
                        "y": "238.41",
                        "z": "179.92"
                    },
                    "DRUL_R": {
                        "x": "0.033143",
                        "y": "234.75",
                        "z": "306.82"
                    },
                    "PRUL_R": {
                        "x": "-0.50025",
                        "y": "248.8",
                        "z": "302.57"
                    }
                }
            },
			{
                "path": "..\/data\/Physiological\/Phys_Bal_11\/VTK Models\/Radius right.vtk",
                "side": "r",
                "landmarks": {
                    "RAF_P": {
                        "x": "40.268",
                        "y": "238.89",
                        "z": "78.5"
                    },
                    "CBD_R": {
                        "x": "20.115",
                        "y": "238.48",
                        "z": "184.34"
                    },
                    "CBP_R": {
                        "x": "27.247",
                        "y": "239.97",
                        "z": "159.73"
                    },
                    "AB_R": {
                        "x": "10.369",
                        "y": "238.47",
                        "z": "220.87"
                    },
                    "DOB_R": {
                        "x": "1.0249",
                        "y": "244.59",
                        "z": "284.18"
                    },
                    "POC_R": {
                        "x": "33.869",
                        "y": "242",
                        "z": "125.56"
                    },
                    "DOAC_R": {
                        "x": "26.493",
                        "y": "239.35",
                        "z": "163.94"
                    },
                    "DRUL_R": {
                        "x": "4.3225",
                        "y": "235.45",
                        "z": "296.31"
                    },
                    "PRUL_R": {
                        "x": "0.82393",
                        "y": "251.14",
                        "z": "293.43"
                    }
                }
            },
			{
                "path": "..\/data\/Physiological\/Phys_Bal_13\/VTK Models\/Radius right.vtk",
                "side": "r",
                "landmarks": {
                    "RAF_P": {
                        "x": "30.752",
                        "y": "226.7",
                        "z": "99.517"
                    },
                    "CBD_R": {
                        "x": "14.843",
                        "y": "233.41",
                        "z": "208.28"
                    },
                    "CBP_R": {
                        "x": "22.255",
                        "y": "233.46",
                        "z": "182.65"
                    },
                    "AB_R": {
                        "x": "5.8188",
                        "y": "236.57",
                        "z": "246.11"
                    },
                    "DOB_R": {
                        "x": "1.7629",
                        "y": "249.87",
                        "z": "311.06"
                    },
                    "POC_R": {
                        "x": "28.516",
                        "y": "236.54",
                        "z": "147.84"
                    },
                    "DOAC_R": {
                        "x": "21.444",
                        "y": "233.16",
                        "z": "187.4"
                    },
                    "DRUL_R": {
                        "x": "3.867",
                        "y": "237.49",
                        "z": "323.18"
                    },
                    "PRUL_R": {
                        "x": "2.9548",
                        "y": "255.19",
                        "z": "317.26"
                    }
                }
            },
			{
                "path": "..\/data\/Physiological\/Phys_Bal_18\/VTK Models\/Radius right.vtk",
                "side": "r",
                "landmarks": {
                    "RAF_P": {
                        "x": "26.917",
                        "y": "-66.566",
                        "z": "391.51"
                    },
                    "CBD_R": {
                        "x": "13.422",
                        "y": "-63.213",
                        "z": "509.446"
                    },
                    "CBP_R": {
                        "x": "19.447",
                        "y": "-63.352",
                        "z": "481.43"
                    },
                    "AB_R": {
                        "x": "5.6991",
                        "y": "-60.626",
                        "z": "550.4"
                    },
                    "DOB_R": {
                        "x": "4.9535",
                        "y": "-50.261",
                        "z": "621.09"
                    },
                    "POC_R": {
                        "x": "26.362",
                        "y": "-59.705",
                        "z": "443"
                    },
                    "DOAC_R": {
                        "x": "18.566",
                        "y": "-63.708",
                        "z": "486.51"
                    },
                    "DRUL_R": {
                        "x": "5.6749",
                        "y": "-60.902",
                        "z": "631.93"
                    },
                    "PRUL_R": {
                        "x": "6.7805",
                        "y": "-46.512",
                        "z": "626.31"
                    }
                }
            }
        ],
        "ulna":  {}
    }
}
