"35125d0d-4184-44aa-b817-2ef2aed139f2:0","35125d0d-4184-44aa-b817-2ef2aed139f2:1","35125d0d-4184-44aa-b817-2ef2aed139f2:2","35125d0d-4184-44aa-b817-2ef2aed139f2:3"
1,12.144,246.53,321.28
1,19.502,243.89,251.41
1,26.279,239.32,212.11
1,17.377,245.54,267.06
1,15.609,244.96,287.84
1,42.408,235.6,119.56
1,32.788,238.41,159.87
1,20.582,248.51,327.22
1,17.53,244.71,322.13
1,19.358,253.17,327.13
1,17.095,253.84,322.25
