{
    "error_sum": "40.105623317592098",
    "squared_error_sum": "169.29361870318343",
    "detailed_errors": {
        "AB_U": "3.590008757351459",
        "CBD_U": "3.0398842082798527",
        "CBP_U": "4.0149740870901747",
        "DOAC_U": "6.8415670376583453",
        "DOB_U": "3.3471262337870109",
        "DRULd_U": "2.5662417548268381",
        "DRULs_U": "3.610686568236873",
        "POC_U": "5.4413154580305205",
        "PRULd_U": "1.6164808387152012",
        "PRULs_U": "4.2364424779267384",
        "RAF_D": "1.8008958956890908"
    },
    "scalismo_gui_path": "\/mnt\/d\/Bachelor\/AutoAtlas\/build\/datadir\/ulna\/right\/5\/atlas_tune43\/output.txt",
    "vtk_path": "\/mnt\/d\/Bachelor\/AutoAtlas\/build\/datadir\/ulna\/right\/5\/atlas_tune43\/output.vtk",
    "patient": "\/mnt\/d\/Bachelor\/AutoAtlas\/data\/Physiological\/Phys_Bal_13\/VTK Models\/Ulna right.vtk",
    "landmarks": {
        "AB_U": {
            "x": "9.1655101776123047",
            "y": "244.61795043945312",
            "z": "273.3858642578125"
        },
        "CBD_U": {
            "x": "12.24942684173584",
            "y": "244.76515197753906",
            "z": "258.962158203125"
        },
        "CBP_U": {
            "x": "17.372697830200195",
            "y": "245.37355041503906",
            "z": "222.99581909179688"
        },
        "DOAC_U": {
            "x": "29.86659049987793",
            "y": "246.20286560058594",
            "z": "175.4417724609375"
        },
        "DOB_U": {
            "x": "5.500554084777832",
            "y": "242.86904907226562",
            "z": "293.19869995117188"
        },
        "DRULd_U": {
            "x": "4.9339909553527832",
            "y": "242.99586486816406",
            "z": "328.58956909179688"
        },
        "DRULs_U": {
            "x": "7.4427523612976074",
            "y": "246.20138549804688",
            "z": "332.63006591796875"
        },
        "POC_U": {
            "x": "39.906734466552734",
            "y": "247.88127136230469",
            "z": "134.01087951660156"
        },
        "PRULd_U": {
            "x": "1.8748321533203125",
            "y": "251.75103759765625",
            "z": "329.37771606445312"
        },
        "PRULs_U": {
            "x": "5.0150737762451172",
            "y": "252.15408325195312",
            "z": "331.91726684570312"
        },
        "RAF_D": {
            "x": "-1.7752995491027832",
            "y": "244.34757995605469",
            "z": "328.73199462890625"
        }
    }
}
