{
    "error_sum": "39.76458693654574",
    "squared_error_sum": "179.46356501963163",
    "detailed_errors": {
        "AB_U": "3.1827840772499494",
        "CBD_U": "2.6658440606321663",
        "CBP_U": "5.7152407044519702",
        "DOAC_U": "6.8909897805789777",
        "DOB_U": "2.6651473430131665",
        "DRULd_U": "2.5121189745061527",
        "DRULs_U": "3.3824849273501836",
        "POC_U": "6.268618507123711",
        "PRULd_U": "0.73126339038720967",
        "PRULs_U": "3.5307654200490504",
        "RAF_D": "2.2193297512032011"
    },
    "scalismo_gui_path": "\/mnt\/d\/Bachelor\/AutoAtlas\/build\/datadir\/ulna\/right\/5\/atlas_tune142\/output.txt",
    "vtk_path": "\/mnt\/d\/Bachelor\/AutoAtlas\/build\/datadir\/ulna\/right\/5\/atlas_tune142\/output.vtk",
    "patient": "\/mnt\/d\/Bachelor\/AutoAtlas\/data\/Physiological\/Phys_Bal_13\/VTK Models\/Ulna right.vtk",
    "landmarks": {
        "AB_U": {
            "x": "8.9924354553222656",
            "y": "244.6263427734375",
            "z": "275.3741455078125"
        },
        "CBD_U": {
            "x": "11.469020843505859",
            "y": "244.64962768554688",
            "z": "260.73538208007812"
        },
        "CBP_U": {
            "x": "17.105981826782227",
            "y": "245.92669677734375",
            "z": "224.78553771972656"
        },
        "DOAC_U": {
            "x": "29.303804397583008",
            "y": "245.86592102050781",
            "z": "175.58612060546875"
        },
        "DOB_U": {
            "x": "5.4000883102416992",
            "y": "242.71728515625",
            "z": "294.38043212890625"
        },
        "DRULd_U": {
            "x": "4.7171382904052734",
            "y": "243.51937866210938",
            "z": "330.42431640625"
        },
        "DRULs_U": {
            "x": "7.5593380928039551",
            "y": "247.32281494140625",
            "z": "333.5543212890625"
        },
        "POC_U": {
            "x": "38.392181396484375",
            "y": "248.67500305175781",
            "z": "133.96640014648438"
        },
        "PRULd_U": {
            "x": "1.0160202980041504",
            "y": "250.47343444824219",
            "z": "330.55679321289062"
        },
        "PRULs_U": {
            "x": "4.8990721702575684",
            "y": "252.16493225097656",
            "z": "332.85400390625"
        },
        "RAF_D": {
            "x": "-1.2982540130615234",
            "y": "244.46455383300781",
            "z": "329.0023193359375"
        }
    }
}
