"a3b1df17-d806-4bba-a898-98b1ed906fb5:0","a3b1df17-d806-4bba-a898-98b1ed906fb5:1","a3b1df17-d806-4bba-a898-98b1ed906fb5:2","a3b1df17-d806-4bba-a898-98b1ed906fb5:3"
1,-50.562,237.82,71.475
1,-25.532,238.24,169.24
1,-33.036,238.25,146.49
1,-14.748,240.57,203.23
1,-9.6846,250.24,264.04
1,-43.058,240.97,114.83
1,-31.149,238.32,150.55
1,-12.665,238.74,271.52
1,-11.758,252.59,269.72
