"dd9ac754-6f4e-40a7-860c-ccfc8b61239f:0","dd9ac754-6f4e-40a7-860c-ccfc8b61239f:1","dd9ac754-6f4e-40a7-860c-ccfc8b61239f:2","dd9ac754-6f4e-40a7-860c-ccfc8b61239f:3"
1,-15.788,241.52,269.91
1,-30.567,248.74,206.73
1,-40.427,247.63,171.82
1,-28.3,247.15,220.51
1,-24.646,245.15,239.54
1,-46.145,251.53,86.89
1,-51.683,247.86,126.28
1,-20.885,242.3,274.03
1,-19.302,240.3,270.52
1,-20.381,244.93,274.44
1,-18.057,246.5,270.62
