{
    "error_sum": "39.748159714351289",
    "squared_error_sum": "167.12015643722634",
    "detailed_errors": {
        "AB_U": "3.1827840772499494",
        "CBD_U": "3.020022487979992",
        "CBP_U": "4.5974619057394843",
        "DOAC_U": "6.8415670376583453",
        "DOB_U": "2.5344739644451821",
        "DRULd_U": "2.6647705286833956",
        "DRULs_U": "3.5028548637863155",
        "POC_U": "5.7104717769777107",
        "PRULd_U": "1.636173571951145",
        "PRULs_U": "3.5275740749707931",
        "RAF_D": "2.5300054249089734"
    },
    "scalismo_gui_path": "\/mnt\/d\/Bachelor\/AutoAtlas\/build\/datadir\/ulna\/right\/5\/atlas_tune58\/output.txt",
    "vtk_path": "\/mnt\/d\/Bachelor\/AutoAtlas\/build\/datadir\/ulna\/right\/5\/atlas_tune58\/output.vtk",
    "patient": "\/mnt\/d\/Bachelor\/AutoAtlas\/data\/Physiological\/Phys_Bal_13\/VTK Models\/Ulna right.vtk",
    "landmarks": {
        "AB_U": {
            "x": "8.9924354553222656",
            "y": "244.6263427734375",
            "z": "275.3741455078125"
        },
        "CBD_U": {
            "x": "11.932494163513184",
            "y": "244.80058288574219",
            "z": "260.61212158203125"
        },
        "CBP_U": {
            "x": "17.771640777587891",
            "y": "243.64593505859375",
            "z": "224.73260498046875"
        },
        "DOAC_U": {
            "x": "29.86659049987793",
            "y": "246.20286560058594",
            "z": "175.4417724609375"
        },
        "DOB_U": {
            "x": "5.3086991310119629",
            "y": "242.68992614746094",
            "z": "294.53298950195312"
        },
        "DRULd_U": {
            "x": "4.9339790344238281",
            "y": "243.57492065429688",
            "z": "330.23178100585938"
        },
        "DRULs_U": {
            "x": "7.5850968360900879",
            "y": "247.59072875976562",
            "z": "333.56689453125"
        },
        "POC_U": {
            "x": "38.420818328857422",
            "y": "248.629638671875",
            "z": "133.27182006835938"
        },
        "PRULd_U": {
            "x": "1.9226394891738892",
            "y": "251.76345825195312",
            "z": "329.43429565429688"
        },
        "PRULs_U": {
            "x": "4.8789310455322266",
            "y": "252.17179870605469",
            "z": "332.84475708007812"
        },
        "RAF_D": {
            "x": "-1.3534818887710571",
            "y": "244.9234619140625",
            "z": "328.9078369140625"
        }
    }
}
