{
    "error_sum": "40.065077046125303",
    "squared_error_sum": "177.03421050953597",
    "detailed_errors": {
        "AB_U": "3.1827840772499494",
        "CBD_U": "2.6404714700800231",
        "CBP_U": "5.7714969715558562",
        "DOAC_U": "6.2005253301195564",
        "DOB_U": "2.9681713065175925",
        "DRULd_U": "2.6824549060527176",
        "DRULs_U": "3.4529926055849058",
        "POC_U": "6.3067546862152026",
        "PRULd_U": "0.69376510340464725",
        "PRULs_U": "3.7836875113494894",
        "RAF_D": "2.3819730779953638"
    },
    "scalismo_gui_path": "\/mnt\/d\/Bachelor\/AutoAtlas\/build\/datadir\/ulna\/right\/5\/atlas_tune226\/output.txt",
    "vtk_path": "\/mnt\/d\/Bachelor\/AutoAtlas\/build\/datadir\/ulna\/right\/5\/atlas_tune226\/output.vtk",
    "patient": "\/mnt\/d\/Bachelor\/AutoAtlas\/data\/Physiological\/Phys_Bal_13\/VTK Models\/Ulna right.vtk",
    "landmarks": {
        "AB_U": {
            "x": "8.9924354553222656",
            "y": "244.6263427734375",
            "z": "275.3741455078125"
        },
        "CBD_U": {
            "x": "11.50141429901123",
            "y": "244.65373229980469",
            "z": "260.635009765625"
        },
        "CBP_U": {
            "x": "17.123010635375977",
            "y": "246.03913879394531",
            "z": "224.78694152832031"
        },
        "DOAC_U": {
            "x": "29.242834091186523",
            "y": "245.73208618164062",
            "z": "174.90611267089844"
        },
        "DOB_U": {
            "x": "5.5571284294128418",
            "y": "242.78300476074219",
            "z": "293.96597290039062"
        },
        "DRULd_U": {
            "x": "4.919532299041748",
            "y": "243.59700012207031",
            "z": "330.30706787109375"
        },
        "DRULs_U": {
            "x": "7.5748600959777832",
            "y": "247.4842529296875",
            "z": "333.56192016601562"
        },
        "POC_U": {
            "x": "38.388160705566406",
            "y": "248.67596435546875",
            "z": "134.01251220703125"
        },
        "PRULd_U": {
            "x": "1.0116066932678223",
            "y": "250.50578308105469",
            "z": "330.53164672851562"
        },
        "PRULs_U": {
            "x": "5.123075008392334",
            "y": "252.10319519042969",
            "z": "332.62997436523438"
        },
        "RAF_D": {
            "x": "-1.239657998085022",
            "y": "244.62867736816406",
            "z": "329.01779174804688"
        }
    }
}
