{
    "error_sum": "40.679229240602751",
    "squared_error_sum": "169.66369416037656",
    "detailed_errors": {
        "AB_U": "3.1723650497386537",
        "CBD_U": "3.0384793891448703",
        "CBP_U": "4.9869892450756605",
        "DOAC_U": "6.8415775478674661",
        "DOB_U": "2.8733209166197877",
        "DRULd_U": "3.0669264994418937",
        "DRULs_U": "3.4868193313170059",
        "POC_U": "4.9907206534087374",
        "PRULd_U": "2.5680214174282936",
        "PRULs_U": "3.6589706952564134",
        "RAF_D": "1.9950384953039726"
    },
    "scalismo_gui_path": "\/mnt\/d\/Bachelor\/AutoAtlas\/build\/datadir\/ulna\/right\/5\/atlas_tune93\/output.txt",
    "vtk_path": "\/mnt\/d\/Bachelor\/AutoAtlas\/build\/datadir\/ulna\/right\/5\/atlas_tune93\/output.vtk",
    "patient": "\/mnt\/d\/Bachelor\/AutoAtlas\/data\/Physiological\/Phys_Bal_13\/VTK Models\/Ulna right.vtk",
    "landmarks": {
        "AB_U": {
            "x": "9.0353507995605469",
            "y": "244.61933898925781",
            "z": "274.76034545898438"
        },
        "CBD_U": {
            "x": "11.96649169921875",
            "y": "244.80477905273438",
            "z": "260.58529663085938"
        },
        "CBP_U": {
            "x": "17.288707733154297",
            "y": "245.99755859375",
            "z": "223.81553649902344"
        },
        "DOAC_U": {
            "x": "29.866817474365234",
            "y": "246.19801330566406",
            "z": "175.44468688964844"
        },
        "DOB_U": {
            "x": "5.4093313217163086",
            "y": "242.77081298828125",
            "z": "293.90899658203125"
        },
        "DRULd_U": {
            "x": "5.377842903137207",
            "y": "243.66978454589844",
            "z": "329.25106811523438"
        },
        "DRULs_U": {
            "x": "7.6056637763977051",
            "y": "247.02951049804688",
            "z": "333.23992919921875"
        },
        "POC_U": {
            "x": "39.7625732421875",
            "y": "247.88261413574219",
            "z": "133.458740234375"
        },
        "PRULd_U": {
            "x": "2.820885181427002",
            "y": "252.1748046875",
            "z": "329.44818115234375"
        },
        "PRULs_U": {
            "x": "4.9072175025939941",
            "y": "252.1649169921875",
            "z": "332.668212890625"
        },
        "RAF_D": {
            "x": "-1.5279191732406616",
            "y": "244.38528442382812",
            "z": "328.87030029296875"
        }
    }
}
