{
    "error_sum": "45.417957215348359",
    "squared_error_sum": "230.86235638505394",
    "detailed_errors": {
        "AB_U": "2.8811729218582651",
        "CBD_U": "3.0962775962009035",
        "CBP_U": "6.4912492478556851",
        "DOAC_U": "7.839138880050518",
        "DOB_U": "2.1061701061742872",
        "DRULd_U": "3.2684662373208777",
        "DRULs_U": "3.9223947021586745",
        "POC_U": "6.6544311666709692",
        "PRULd_U": "1.6619018424659298",
        "PRULs_U": "5.1154559997261124",
        "RAF_D": "2.3812985148661405"
    },
    "scalismo_gui_path": "\/mnt\/d\/Bachelor\/AutoAtlas\/build\/datadir\/ulna\/right\/5\/atlas_tune26\/output.txt",
    "vtk_path": "\/mnt\/d\/Bachelor\/AutoAtlas\/build\/datadir\/ulna\/right\/5\/atlas_tune26\/output.vtk",
    "patient": "\/mnt\/d\/Bachelor\/AutoAtlas\/data\/Physiological\/Phys_Bal_13\/VTK Models\/Ulna right.vtk",
    "landmarks": {
        "AB_U": {
            "x": "8.2327280044555664",
            "y": "244.34243774414062",
            "z": "276.32183837890625"
        },
        "CBD_U": {
            "x": "10.944720268249512",
            "y": "244.54258728027344",
            "z": "261.869873046875"
        },
        "CBP_U": {
            "x": "16.813283920288086",
            "y": "245.14633178710938",
            "z": "226.02638244628906"
        },
        "DOAC_U": {
            "x": "28.850650787353516",
            "y": "245.7723388671875",
            "z": "176.55868530273438"
        },
        "DOB_U": {
            "x": "4.9623904228210449",
            "y": "242.58059692382812",
            "z": "295.11419677734375"
        },
        "DRULd_U": {
            "x": "5.4882473945617676",
            "y": "243.58824157714844",
            "z": "328.62109375"
        },
        "DRULs_U": {
            "x": "7.6982226371765137",
            "y": "246.7957763671875",
            "z": "332.5416259765625"
        },
        "POC_U": {
            "x": "38.352241516113281",
            "y": "248.679931640625",
            "z": "134.43023681640625"
        },
        "PRULd_U": {
            "x": "1.9225131273269653",
            "y": "251.76692199707031",
            "z": "329.384033203125"
        },
        "PRULs_U": {
            "x": "6.8945035934448242",
            "y": "251.16091918945312",
            "z": "332.17074584960938"
        },
        "RAF_D": {
            "x": "-0.69997501373291016",
            "y": "243.88002014160156",
            "z": "329.20840454101562"
        }
    }
}
