{
    "error_sum": "37.830868279129696",
    "squared_error_sum": "162.94425408687209",
    "detailed_errors": {
        "AB_U": "2.7840349439686931",
        "CBD_U": "2.7779960415932599",
        "CBP_U": "5.7152407044519702",
        "DOAC_U": "6.2078217834300311",
        "DOB_U": "2.0113541053607418",
        "DRULd_U": "2.4200502723458337",
        "DRULs_U": "3.0361985791812152",
        "POC_U": "6.268618507123711",
        "PRULd_U": "0.95100511960975298",
        "PRULs_U": "3.5166061704203257",
        "RAF_D": "2.1419420516441621"
    },
    "scalismo_gui_path": "\/mnt\/d\/Bachelor\/AutoAtlas\/build\/datadir\/ulna\/right\/5\/atlas_tune143\/output.txt",
    "vtk_path": "\/mnt\/d\/Bachelor\/AutoAtlas\/build\/datadir\/ulna\/right\/5\/atlas_tune143\/output.vtk",
    "patient": "\/mnt\/d\/Bachelor\/AutoAtlas\/data\/Physiological\/Phys_Bal_13\/VTK Models\/Ulna right.vtk",
    "landmarks": {
        "AB_U": {
            "x": "8.4193000793457031",
            "y": "244.41850280761719",
            "z": "275.77435302734375"
        },
        "CBD_U": {
            "x": "10.973895072937012",
            "y": "244.52955627441406",
            "z": "261.45309448242188"
        },
        "CBP_U": {
            "x": "17.105981826782227",
            "y": "245.92669677734375",
            "z": "224.78553771972656"
        },
        "DOAC_U": {
            "x": "29.349000930786133",
            "y": "245.8052978515625",
            "z": "174.90089416503906"
        },
        "DOB_U": {
            "x": "4.871429443359375",
            "y": "242.59089660644531",
            "z": "295.18792724609375"
        },
        "DRULd_U": {
            "x": "4.5806994438171387",
            "y": "243.47781372070312",
            "z": "330.5294189453125"
        },
        "DRULs_U": {
            "x": "7.4203710556030273",
            "y": "246.982421875",
            "z": "333.82598876953125"
        },
        "POC_U": {
            "x": "38.392181396484375",
            "y": "248.67500305175781",
            "z": "133.96640014648438"
        },
        "PRULd_U": {
            "x": "1.0411951541900635",
            "y": "250.28887939453125",
            "z": "330.70013427734375"
        },
        "PRULs_U": {
            "x": "4.9341635704040527",
            "y": "252.15159606933594",
            "z": "332.90167236328125"
        },
        "RAF_D": {
            "x": "-1.3581274747848511",
            "y": "244.42068481445312",
            "z": "328.97036743164062"
        }
    }
}
