"20ae33db-a93c-47da-85cf-31d01d70b955:0","20ae33db-a93c-47da-85cf-31d01d70b955:1","20ae33db-a93c-47da-85cf-31d01d70b955:2","20ae33db-a93c-47da-85cf-31d01d70b955:3"
1,-5.013,240.43,254.47
1,-21.281,241.43,191.4
1,-31.226,240.9,156.7
1,-17.331,242.37,205
1,-13.789,241.43,223.55
1,-49.189,248,73.826
1,-42.051,243.54,110.51
1,-9.8125,243.69,259.34
1,-10.54,239.72,254.18
1,-8.2497,245.92,258.58
1,-7.4424,246.92,254.06
