{
    "paths":
    [
        "datadir/ulna/left/0/output.json",
        "datadir/ulna/left/1/output.json",
        "datadir/ulna/left/2/output.json",
        "datadir/ulna/left/3/output.json",
        "datadir/ulna/left/4/output.json",
        "datadir/ulna/left/5/output.json",
        "datadir/ulna/left/6/output.json",
        "datadir/ulna/left/7/output.json",
        "datadir/ulna/left/8/output.json",
        "datadir/ulna/left/9/output.json",
		"datadir/ulna/right/0/output.json",
        "datadir/ulna/right/1/output.json",
        "datadir/ulna/right/2/output.json",
        "datadir/ulna/right/3/output.json",
        "datadir/ulna/right/4/output.json",
        "datadir/ulna/right/5/output.json",
        "datadir/ulna/right/6/output.json",
        "datadir/ulna/right/7/output.json",
		"datadir/radius/left/0/output.json",
        "datadir/radius/left/1/output.json",
        "datadir/radius/left/2/output.json",
        "datadir/radius/left/3/output.json",
        "datadir/radius/left/4/output.json",
        "datadir/radius/left/5/output.json",
        "datadir/radius/left/6/output.json",
        "datadir/radius/left/7/output.json",
        "datadir/radius/left/8/output.json",
        "datadir/radius/left/9/output.json",
		"datadir/radius/right/0/output.json",
        "datadir/radius/right/1/output.json",
        "datadir/radius/right/2/output.json",
        "datadir/radius/right/3/output.json",
        "datadir/radius/right/4/output.json",
        "datadir/radius/right/5/output.json",
        "datadir/radius/right/6/output.json"
    ]
}