"a3129445-fc35-4e58-9c5b-ded5ce11a297:0","a3129445-fc35-4e58-9c5b-ded5ce11a297:1","a3129445-fc35-4e58-9c5b-ded5ce11a297:2","a3129445-fc35-4e58-9c5b-ded5ce11a297:3"
1,4.0741,241.24,298.98
1,17.921,239.39,224.25
1,26.017,235.29,184.19
1,14.962,239.79,240.05
1,10.868,239.07,261.62
1,39.491,243.13,87.588
1,37.999,233.74,130.31
1,11.651,238.08,302.28
1,7.5704,235.96,298.26
1,12.49,243.21,302.91
1,8.6318,246.04,300.73
